…
I will remove the following from the data: - The 24 customers who are
missing Income data because it is a very small fraction of the data -
The 3 customers who are over the age of 100

### Let’s check out the categorical variables

``` r
mkt_data %>%
  select_if(is.character) # list out all the categorical variables
```

    ## # A tibble: 2,240 x 4
    ##    Education  Marital_Status Country gen   
    ##    <chr>      <chr>          <chr>   <chr> 
    ##  1 Graduation Divorced       SP      genx  
    ##  2 Graduation Single         CA      boomer
    ##  3 Graduation Married        US      boomer
    ##  4 Graduation Together       AUS     genx  
    ##  5 Graduation Single         SP      mill  
    ##  6 PhD        Single         SP      boomer
    ##  7 2n Cycle   Married        GER     boomer
    ##  8 Graduation Together       SP      genx  
    ##  9 PhD        Married        US      boomer
    ## 10 PhD        Married        IND     boomer
    ## # ... with 2,230 more rows
…
